%YAML 1.1
%TAG !u! tag:unity3d.com,2011:
--- !u!221 &22100000
AnimatorOverrideController:
  m_ObjectHideFlags: 0
  m_CorrespondingSourceObject: {fileID: 0}
  m_PrefabInternal: {fileID: 0}
  m_Name: Desafio3
  m_Controller: {fileID: 9100000, guid: 4efb09ff68f2ebc46b505ef0c7d3d64a, type: 2}
  m_Clips:
  - m_OriginalClip: {fileID: 7400000, guid: 6f86b1eeffe9d0943bbe1c1e2f54aaf4, type: 2}
    m_OverrideClip: {fileID: 7400000, guid: f56d990b721026143a368a7ab8b6a3fc, type: 3}
