%YAML 1.1
%TAG !u! tag:unity3d.com,2011:
--- !u!687078895 &4343727234628468602
SpriteAtlas:
  m_ObjectHideFlags: 0
  m_CorrespondingSourceObject: {fileID: 0}
  m_PrefabInternal: {fileID: 0}
  m_Name: Icones
  m_EditorData:
    serializedVersion: 2
    textureSettings:
      serializedVersion: 2
      anisoLevel: 1
      compressionQuality: 50
      maxTextureSize: 2048
      textureCompression: 0
      filterMode: 1
      generateMipMaps: 0
      readable: 0
      crunchedCompression: 0
      sRGB: 1
    platformSettings:
    - serializedVersion: 2
      m_BuildTarget: DefaultTexturePlatform
      m_MaxTextureSize: 512
      m_ResizeAlgorithm: 0
      m_TextureFormat: -1
      m_TextureCompression: 2
      m_CompressionQuality: 100
      m_CrunchedCompression: 1
      m_AllowsAlphaSplitting: 0
      m_Overridden: 0
      m_AndroidETC2FallbackOverride: 0
    packingSettings:
      serializedVersion: 2
      padding: 4
      blockOffset: 1
      allowAlphaSplitting: 0
      enableRotation: 1
      enableTightPacking: 1
    variantMultiplier: 1
    packables:
    - {fileID: 2800000, guid: da2a63486f8b99b4a96e95b5fc7c4f78, type: 3}
    - {fileID: 2800000, guid: 1fc89e82548ae804fac8b0c53f4d9801, type: 3}
    - {fileID: 2800000, guid: f21fd7f1b281c5545ac3d190fdb81d83, type: 3}
    - {fileID: 2800000, guid: 9659245568104384391ae0963b799a0d, type: 3}
    - {fileID: 2800000, guid: c478fd840943e6646989fcb052fb05f5, type: 3}
    - {fileID: 2800000, guid: 86edb35e7e13cc14e8665b195cc1770a, type: 3}
    - {fileID: 2800000, guid: bb388451634425f4782b67a72c4b16b8, type: 3}
    - {fileID: 2800000, guid: 0ac0d2e4fa3c3aa4fa5e389291886e1a, type: 3}
    bindAsDefault: 1
  m_MasterAtlas: {fileID: 0}
  m_PackedSprites: []
  m_PackedSpriteNamesToIndex: []
  m_Tag: Icones
  m_IsVariant: 0
